﻿Poolname;Adress;Postalcode
Schwimmhalle Süd;Tarostr ;04103 Leipzig  
Schwimmhalle Mitte;Kirschbergstr ;04155 Leipzig  
Schwimmhalle Nord;Kleiststr 54 Eutritzsch ;04157 Leipzig  
Sportbad an der Elster;Antonienstr ;04229 Leipzig  
Schwimmhalle Südost;Kolmstr ;04299 Leipzig  
Schwimmhalle Nordost;Schönefelder Allee ;04347 Leipzig  
Schwimmhalle West (nicht Westbad);Hans-Driesch-Str 52a ;04179 Leipzig  
Grünauer Welle;Stuttgarter Allee ;04209 Leipzig  
Sommerbad Schönefeld;Volbedingstr ;04357 Leipzig  
Sommerbad Kleinzschocher;Küchenholzallee ;04229 Leipzig  
Sommerbad Südost;Oststr 173 Stötteritz ;04299 Leipzig  
Schreberbad;Schreberstr ;04109 Leipzig  
Ökobad Lindenthal;Am Freibad ;04158 Leipzig  
Sportzentrum Neue Badeanstalt;An der Badeanlage ;04288 Leipzig  
Wasserwelt im Westbad;Marktstr ;04177 Leipzig  
Bornaische55;Bornaische Straße ;04277 Leipzig  
Sachsen-Therme;Schongauer Str ;04329 Leipzig  